…
refit workflow with new recipe, call tidy() with new object

Example code:

    estimated_recipe <- 
      lm_fit %>% 
      extract_recipe(estimated = TRUE)

    tidy(estimated_recipe, id = "my_id")
    
    #> # A tibble: 22 × 3
    #>   terms        retained           id   
    #>   <chr>        <chr>              <chr>
    #> 1 Neighborhood North_Ames         my_id
    #> 2 Neighborhood College_Creek      my_id
    #> 3 Neighborhood Old_Town           my_id
    #> 4 Neighborhood Edwards            my_id
    #> 5 Neighborhood Somerset           my_id
    #> 6 Neighborhood Northridge_Heights my_id
    #> # … with 16 more rows
…
## Regression metrics
*using yardstick tidymodels package, have prediction functions*

- uses test data set & already created linear regression model to compare predicted & observed sale prices of housing data

Example code:

    ames_test_res <- predict(lm_fit, new_data = ames_test %>% select(-Sale_Price))
    ames_test_res

    #> # A tibble: 588 × 1
    #>   .pred
    #>   <dbl>
    #> 1  5.07
    #> 2  5.31
    #> 3  5.28
    #> 4  5.33
    #> 5  5.30
    #> 6  5.24
    #> # … with 582 more rows
    
    ames_test_res <- bind_cols(ames_test_res, ames_test %>% select(Sale_Price))
    ames_test_res
    #> # A tibble: 588 × 2
    #>   .pred Sale_Price
    #>   <dbl>      <dbl>
    #> 1  5.07       5.02
    #> 2  5.31       5.39
    #> 3  5.28       5.28
    #> 4  5.33       5.28
    #> 5  5.30       5.28
    #> 6  5.24       5.26
    #> # … with 582 more rows
…
  
*can specify event level when, for example, the second class is the event*

using predicted probabilities as inputs

- ROC (receiver operating characteristic) curve computes sensitivity/specificity over continuum of different event thresholds
- two yardstick functions: roc_curve() to compute data points that make up the curve and roc_auc() that computes the area under the curve

Example code:

    two_class_curve <- roc_curve(two_class_example, truth, Class1)
    two_class_curve
    #> # A tibble: 502 × 3
    #>   .threshold specificity sensitivity
    #>        <dbl>       <dbl>       <dbl>
    #> 1 -Inf           0                 1
    #> 2    1.79e-7     0                 1
    #> 3    4.50e-6     0.00413           1
    #> 4    5.81e-6     0.00826           1
    #> 5    5.92e-6     0.0124            1
    #> 6    1.22e-5     0.0165            1
    #> # … with 496 more rows
…
    roc_auc(hpc_cv, obs, VF, F, M, L, estimator = "macro_weighted")
    #> # A tibble: 1 × 3
    #>   .metric .estimator     .estimate
    #>   <chr>   <chr>              <dbl>
    #> 1 roc_auc macro_weighted     0.868
    
metrics can also be computed using dplyr grouping mechanisms

Example code:

    hpc_cv %>% 
      group_by(Resample) %>% 
      accuracy(obs, pred)
    #> # A tibble: 10 × 4
    #>   Resample .metric  .estimator .estimate
    #>   <chr>    <chr>    <chr>          <dbl>
    #> 1 Fold01   accuracy multiclass     0.726
    #> 2 Fold02   accuracy multiclass     0.712
    #> 3 Fold03   accuracy multiclass     0.758
    #> 4 Fold04   accuracy multiclass     0.712
    #> 5 Fold05   accuracy multiclass     0.712
    #> 6 Fold06   accuracy multiclass     0.697
    #> # … with 4 more rows
…
values of v should generally be larger in practice, most often 5 or 10

Example code:

    set.seed(1001)
    
    ames_folds <- vfold_cv(ames_train, v = 10)
    
    ames_folds
    #> #  10-fold cross-validation 
    
    #> # A tibble: 10 × 2
    
    #>   splits             id    
    #>   <list>             <chr> 
    #> 1 <split [2107/235]> Fold01
    #> 2 <split [2107/235]> Fold02
    #> 3 <split [2108/234]> Fold03
    #> 4 <split [2108/234]> Fold04
    #> 5 <split [2108/234]> Fold05
    #> 6 <split [2108/234]> Fold06
    #> # … with 4 more rows
…
    #> [1] 2107   74
    
### Repeated cross-validation

creating R repeats of V-fold cross-validation will decrease noisiness in initial estimate

- repeat the fold generation R time to generate R collections of V partitions (V x R produces the final resampling estimate)
- the summ. statistics from each model tend toward normal distribution (CLT)

Example code:

    vfold_cv(ames_train, v = 10, repeats = 5)
    #> #  10-fold cross-validation repeated 5 times 
    #> # A tibble: 50 × 3
    #>   splits             id      id2   
    #>   <list>             <chr>   <chr> 
    #> 1 <split [2107/235]> Repeat1 Fold01
    #> 2 <split [2107/235]> Repeat1 Fold02
    #> 3 <split [2108/234]> Repeat1 Fold03
    #> 4 <split [2108/234]> Repeat1 Fold04
    #> 5 <split [2108/234]> Repeat1 Fold05
    #> 6 <split [2108/234]> Repeat1 Fold06
    #> # … with 44 more rows
…
- each model will predict excluded point, and the n predictions are pooled at the end of the resampling
- computationally excessive tbh

### Monte Carlo cross-validation

data is randomly selected to the assessment sets

Example code:

    mc_cv(ames_train, prop = 9/10, times = 20)
    
    #> # Monte Carlo cross-validation (0.9/0.1) with 20 resamples 
    
    #> # A tibble: 20 × 2
    
    #>   splits             id        
    #>   <list>             <chr>     
    #> 1 <split [2107/235]> Resample01
    #> 2 <split [2107/235]> Resample02
    #> 3 <split [2107/235]> Resample03
    #> 4 <split [2107/235]> Resample04
    #> 5 <split [2107/235]> Resample05
    #> 6 <split [2107/235]> Resample06
    #> # … with 14 more rows
…
Example code:

    keep_pred <- control_resamples(save_pred = TRUE, save_workflow = TRUE)

    set.seed(1003)
    
    rf_res <- 
      rf_wflow %>% 
      fit_resamples(resamples = ames_folds, control = keep_pred)
      
    rf_res
    
    #> # Resampling results
    #> # 10-fold cross-validation 
    #> # A tibble: 10 × 5
    #>   splits             id     .metrics         .notes           .predictions      
    #>   <list>             <chr>  <list>           <list>           <list>            
    #> 1 <split [2107/235]> Fold01 <tibble [2 × 4]> <tibble [0 × 3]> <tibble [235 × 4]>
    #> 2 <split [2107/235]> Fold02 <tibble [2 × 4]> <tibble [0 × 3]> <tibble [235 × 4]>
    #> 3 <split [2108/234]> Fold03 <tibble [2 × 4]> <tibble [0 × 3]> <tibble [234 × 4]>
    #> 4 <split [2108/234]> Fold04 <tibble [2 × 4]> <tibble [0 × 3]> <tibble [234 × 4]>
    #> 5 <split [2108/234]> Fold05 <tibble [2 × 4]> <tibble [0 × 3]> <tibble [234 × 4]>
    #> 6 <split [2108/234]> Fold06 <tibble [2 × 4]> <tibble [0 × 3]> <tibble [234 × 4]>
    #> # … with 4 more rows
…
    #> # A tibble: 2 × 6

    #>   .metric .estimator   mean     n std_err .config             
    #>   <chr>   <chr>       <dbl> <int>   <dbl> <chr>               
    #> 1 rmse    standard   0.0721    10 0.00305 Preprocessor1_Model1
    #> 2 rsq     standard   0.831     10 0.0108  Preprocessor1_Model1
    
to collect predictions from assessment set:

    assess_res <- collect_predictions(rf_res)
    
    assess_res
    
    #> # A tibble: 2,342 × 5
    #>   id     .pred  .row Sale_Price .config             
    #>   <chr>  <dbl> <int>      <dbl> <chr>               
    #> 1 Fold01  5.10    10       5.09 Preprocessor1_Model1
    #> 2 Fold01  4.92    27       4.90 Preprocessor1_Model1
    #> 3 Fold01  5.21    47       5.08 Preprocessor1_Model1
    #> 4 Fold01  5.13    52       5.10 Preprocessor1_Model1
    #> 5 Fold01  5.13    59       5.10 Preprocessor1_Model1
    #> 6 Fold01  5.13    63       5.11 Preprocessor1_Model1
    #> # … with 2,336 more rows
